56

600 0
600 100
600 200
600 300
600 400
600 500
600 600
600 700

550 0
550 100
550 200
550 300
550 400
550 500
550 600
550 700

650 0
650 100
650 200
650 300
650 400
650 500
650 600
650 700

700 0
700 100
700 200
700 300
700 400
700 500
700 600
700 700

500 0
500 100
500 200
500 300
500 400
500 500
500 600
500 700

450 0
450 100
450 200
450 300
450 400
450 500
450 600
450 700

750 0
750 100
750 200
750 300
750 400
750 500
750 600
750 700


