30
20 30 
130 30 
240 30 
360 30 
480 30 
600 30
720 30
840 30 
960 30 
1080 30

20 80
130 80
240 80
360 80
480 80
600 80
720 80
840 80
960 80
1080 80


20 130
130 130
240 130
360 130
480 130
600 130
720 130
840 130
960 130
1080 130
